<svg xmlns="http://www.w3.org/2000/svg" width="38" height="38" viewBox="0 0 38 38">
  <g id="Icon" transform="translate(0 -0.468)">
    <circle id="Icon.BG" cx="19" cy="19" r="19" transform="translate(0 0.468)" fill="#b0e2c3"/>
    <circle id="Icon.BG-2" data-name="Icon.BG" cx="8" cy="8" r="8" transform="translate(11 11.468)" fill="#68c38a"/>
    <path id="check" d="M12.814,6l-6.06,6.06L4,9.305" transform="translate(11 11.408)" fill="rgba(255,255,255,0)" stroke="#fff" stroke-linecap="round" stroke-linejoin="round" stroke-width="2"/>
  </g>
</svg>
