<svg xmlns="http://www.w3.org/2000/svg" width="38" height="38" viewBox="0 0 38 38">
  <g id="Icon" transform="translate(0 -0.468)">
    <circle id="Icon.BG" cx="19" cy="19" r="19" transform="translate(0 0.468)" fill="#f5adad"/>
    <circle id="Icon.BG-2" data-name="Icon.BG" cx="8" cy="8" r="8" transform="translate(11 11.468)" fill="#ff6565"/>
    <rect id="Rectangle_145" data-name="Rectangle 145" width="9.904" height="1.188" transform="translate(15.988 16.009) rotate(45)" fill="#fff"/>
    <rect id="Rectangle_146" data-name="Rectangle 146" width="9.904" height="1.188" transform="translate(22.991 16.85) rotate(135)" fill="#fff"/>
  </g>
</svg>
